/home/e20200001128/Bureau/AGL/TP7/tdsonar/src/main/java/pizzas/Pizza.java
/home/e20200001128/Bureau/AGL/TP7/tdsonar/src/main/java/pizzas/BasePizzas.java
/home/e20200001128/Bureau/AGL/TP7/tdsonar/src/main/java/pizzas/Ingredient.java
